{
    "categories": [{
            "id": 1,
            "name": "Bebidas",
            "sublevels": [{
                "id": 2,
                "name": "Gaseosas",
                "sublevels": [{
                        "id": 3,
                        "name": "Con azúcar"
                    },
                    {
                        "id": 4,
                        "name": "Sin azúcar"
                    }
                ]
            }]
        },
        {
            "id": 5,
            "name": "Desayunos",
            "sublevels": [{
                "id": 6,
                "name": "Fake 1",
                "sublevels": [{
                        "id": 7,
                        "name": "Fake 2"
                    },
                    {
                        "id": 8,
                        "name": "Fake 3",
                        "sublevels": [{
                            "id": 9,
                            "name": "Fake 4"
                        }]
                    }
                ]
            }]
        },
        {
            "id": 10,
            "name": "Almuerzos",
            "sublevels": [{
                    "id": 11,
                    "name": "Fake 5"
                },
                {
                    "id": 12,
                    "name": "Fake 6"
                }
            ]
        },
        {
            "id": 13,
            "name": "Vinos",
            "sublevels": [{
                    "id": 14,
                    "name": "Fake 8"
                },
                {
                    "id": 15,
                    "name": "Fake 9"
                }
            ]
        }
    ]
}